…
    ## ✓ ggplot2 3.3.3     ✓ purrr   0.3.4
    ## ✓ tibble  3.0.4     ✓ dplyr   1.0.2
    ## ✓ tidyr   1.1.2     ✓ stringr 1.4.0
    ## ✓ readr   1.4.0     ✓ forcats 0.5.0

    ## ── Conflicts ────────────────────────────────────────── tidyverse_conflicts() ──
    ## x dplyr::filter() masks stats::filter()
    ## x dplyr::lag()    masks stats::lag()

``` r
iris <- as_tibble(iris) # so it prints a little nicer
iris
```

    ## # A tibble: 150 x 5
    ##    Sepal.Length Sepal.Width Petal.Length Petal.Width Species
    ##           <dbl>       <dbl>        <dbl>       <dbl> <fct>  
    ##  1          5.1         3.5          1.4         0.2 setosa 
    ##  2          4.9         3            1.4         0.2 setosa 
    ##  3          4.7         3.2          1.3         0.2 setosa 
    ##  4          4.6         3.1          1.5         0.2 setosa 
    ##  5          5           3.6          1.4         0.2 setosa 
    ##  6          5.4         3.9          1.7         0.4 setosa 
    ##  7          4.6         3.4          1.4         0.3 setosa 
    ##  8          5           3.4          1.5         0.2 setosa 
    ##  9          4.4         2.9          1.4         0.2 setosa 
    ## 10          4.9         3.1          1.5         0.1 setosa 
    ## # … with 140 more rows
…
#Question 1

i2 <- rename(
  iris, 
  sepal_length = Sepal.Length,
  sepal_width = Sepal.Width,
  petal_length = Petal.Length,
  petal_width = Petal.Width,
  species = Species
  )
i2
```

    ## # A tibble: 150 x 5
    ##    sepal_length sepal_width petal_length petal_width species
    ##           <dbl>       <dbl>        <dbl>       <dbl> <fct>  
    ##  1          5.1         3.5          1.4         0.2 setosa 
    ##  2          4.9         3            1.4         0.2 setosa 
    ##  3          4.7         3.2          1.3         0.2 setosa 
    ##  4          4.6         3.1          1.5         0.2 setosa 
    ##  5          5           3.6          1.4         0.2 setosa 
    ##  6          5.4         3.9          1.7         0.4 setosa 
    ##  7          4.6         3.4          1.4         0.3 setosa 
    ##  8          5           3.4          1.5         0.2 setosa 
    ##  9          4.4         2.9          1.4         0.2 setosa 
    ## 10          4.9         3.1          1.5         0.1 setosa 
    ## # … with 140 more rows
…
``` r
#Question 2

numerical_mm <- mutate(i2, 
       sepal_length = sepal_length * 10,
       sepal_width = sepal_width * 10,
       petal_length = petal_length * 10,
       petal_width = petal_width * 10
       )
numerical_mm
```

    ## # A tibble: 150 x 5
    ##    sepal_length sepal_width petal_length petal_width species
    ##           <dbl>       <dbl>        <dbl>       <dbl> <fct>  
    ##  1           51          35           14           2 setosa 
    ##  2           49          30           14           2 setosa 
    ##  3           47          32           13           2 setosa 
    ##  4           46          31           15           2 setosa 
    ##  5           50          36           14           2 setosa 
    ##  6           54          39           17           4 setosa 
    ##  7           46          34           14           3 setosa 
    ##  8           50          34           15           2 setosa 
    ##  9           44          29           14           2 setosa 
    ## 10           49          31           15           1 setosa 
    ## # … with 140 more rows

Question 3: Calculate sepal area and petal area (area is equal to length
multiplied by width). Print a table with only the variables sepal area,
petal area, and species.

``` r
i3 <- mutate(i2, sepal_area = sepal_length * sepal_width,
       petal_area = petal_length * petal_width)  

i4 <- select(i3, sepal_area, petal_area, species)
i4
```

    ## # A tibble: 150 x 3
    ##    sepal_area petal_area species
    ##         <dbl>      <dbl> <fct>  
    ##  1       17.8      0.280 setosa 
    ##  2       14.7      0.280 setosa 
    ##  3       15.0      0.26  setosa 
    ##  4       14.3      0.3   setosa 
    ##  5       18        0.280 setosa 
    ##  6       21.1      0.68  setosa 
    ##  7       15.6      0.42  setosa 
    ##  8       17        0.3   setosa 
    ##  9       12.8      0.280 setosa 
    ## 10       15.2      0.15  setosa 
    ## # … with 140 more rows
…
